<?xml version="1.0" encoding="UTF-8"?>
<svg width="16px" height="16px" viewBox="0 0 16 16" version="1.1" xmlns="http://www.w3.org/2000/svg" xmlns:xlink="http://www.w3.org/1999/xlink">
    <!-- Generator: Sketch 51.3 (57544) - http://www.bohemiancoding.com/sketch -->
    <title>Oval</title>
    <desc>Created with Sketch.</desc>
    <defs></defs>
    <g id="Page-1" stroke="none" stroke-width="1" fill="none" fill-rule="evenodd">
        <g id="3_IAI_interface_XL" transform="translate(-698.000000, -731.000000)" fill="#6ECCB5" fill-rule="nonzero">
            <g id="Group-3" transform="translate(720.000000, 739.000000) scale(-1, 1) translate(-720.000000, -739.000000) translate(698.000000, 731.000000)">
                <circle id="Oval" cx="36" cy="8" r="8"></circle>
            </g>
        </g>
    </g>
</svg>