<?xml version="1.0" encoding="UTF-8"?>
<svg width="183px" height="281px" viewBox="0 0 183 281" version="1.1" xmlns="http://www.w3.org/2000/svg" xmlns:xlink="http://www.w3.org/1999/xlink">
    <!-- Generator: Sketch 51.3 (57544) - http://www.bohemiancoding.com/sketch -->
    <title>Group 2</title>
    <desc>Created with Sketch.</desc>
    <defs>
        <polygon id="path-1" points="0.00203703704 0.00509259259 54.1037037 0.00509259259 54.1037037 54.1087963 0.00203703704 54.1087963"></polygon>
        <polygon id="path-3" points="0 0 181 0 181 320 0 320"></polygon>
        <polygon id="path-5" points="0.000806796393 0.00131230931 69.596137 0.00131230931 69.596137 59.965099 0.000806796393 59.965099"></polygon>
        <polygon id="path-7" points="0.5775 0.673095238 20.6983333 0.673095238 20.6983333 21.3015873 0.5775 21.3015873"></polygon>
        <polygon id="path-9" points="0 0.668730159 20.8017857 0.668730159 20.8017857 21.3015873 0 21.3015873"></polygon>
        <polygon id="path-11" points="0.576626984 0.269761905 21.3015873 0.269761905 21.3015873 20.9034921 0.576626984 20.9034921"></polygon>
    </defs>
    <g id="Page-1" stroke="none" stroke-width="1" fill="none" fill-rule="evenodd">
        <g id="2_IAI__tuto1video_V3XL" transform="translate(-240.000000, -231.000000)">
            <g id="Group-2" transform="translate(237.000000, 231.000000)">
                <g id="Group-3" transform="translate(64.000000, 123.000000)">
                    <mask id="mask-2" fill="white">
                        <use xlink:href="#path-1"></use>
                    </mask>
                    <g id="Clip-2"></g>
                    <path d="M27.0538889,11.937037 C35.0085185,11.937037 42.1687037,18.3027778 42.1687037,27.0518519 C42.1687037,35.0166667 35.802963,42.1768519 27.0538889,42.1768519 C19.0992593,42.1768519 11.9390741,35.8111111 11.9390741,27.0518519 C11.9390741,19.0972222 19.0992593,11.937037 27.0538889,11.937037 M27.0538889,54.1138889 C42.1687037,54.1138889 54.1057407,42.1768519 54.1057407,27.0518519 C54.1057407,11.937037 42.1687037,0 27.0538889,0 C11.9390741,0 0.00203703704,11.937037 0.00203703704,27.0518519 C0.00203703704,42.1768519 12.7335185,54.1138889 27.0538889,54.1138889" id="Fill-1" fill="#255850" mask="url(#mask-2)"></path>
                </g>
                <g id="Group-3" transform="translate(102.278601, 272.628511) rotate(-1.000000) translate(-102.278601, -272.628511) translate(11.778601, 112.628511)">
                    <mask id="mask-4" fill="white">
                        <use xlink:href="#path-3"></use>
                    </mask>
                    <g id="Clip-2"></g>
                    <path d="M99.9052887,167.613135 L100.985444,105.690332 L159.135879,43.7385086 C162.509095,40.7989299 164.52249,36.5090076 164.670764,31.9376793 C164.756606,27.8704523 162.926602,21.8354081 154.289684,16.114162 C151.886096,14.4702654 148.672858,14.9824647 146.858462,17.3005209 C145.069428,19.7643413 145.543512,23.2667319 147.917835,25.1232014 C151.854881,27.6477569 153.965824,30.0832343 153.965824,31.8708707 C153.903393,32.7535541 153.571729,33.5896739 153.017655,34.261809 C151.088152,36.3146553 148.864053,38.04763 146.42925,39.4020227 C135.657977,45.2811801 113.906679,51.2251216 82.2483855,51.2251216 C42.1872897,51.2251216 17.8509641,41.7038829 11.9492979,34.865111 L11.5200858,34.3529116 C10.9289437,33.662556 10.5738682,32.7920196 10.5075355,31.8708707 C10.5075355,30.1055039 12.6613998,27.7368351 16.0853417,25.4572444 C18.3152936,24.0927292 19.3415007,21.3130863 18.561115,18.7520897 C17.585633,15.8388296 14.5187175,14.2961581 11.7093293,15.3084097 C11.3405971,15.4400024 10.9894236,15.6141097 10.6577597,15.824658 C1.63455096,21.5681737 -0.261786097,27.7145655 -0.261786097,31.8931402 C-0.25398224,33.927766 0.186935635,35.9340487 1.03170307,37.7722976 C1.75941266,39.3736797 2.67636576,40.8758611 3.7650037,42.2424007 L63.1016243,105.690332 L63.355955,166.975033 L99.9052887,167.613135 Z" id="Fill-1" fill="#255850" mask="url(#mask-4)"></path>
                </g>
                <g id="Group-3" transform="translate(32.000000, 85.000000) rotate(-87.000000) translate(-32.000000, -85.000000) translate(-3.000000, 55.000000)">
                    <mask id="mask-6" fill="white">
                        <use xlink:href="#path-5"></use>
                    </mask>
                    <g id="Clip-2"></g>
                    <path d="M11.0929506,49.8655666 L4.77199409,50.0842848 C2.04239072,50.1761464 -0.0922990881,52.463939 0.00393692793,55.1935424 C0.0957985796,57.8619046 2.28735513,59.9659739 4.9425943,59.9659739 C4.99946103,59.9659739 5.05632777,59.9659739 5.11756887,59.9615995 L36.4467664,58.8767572 L29.0234701,35.1502048 L53.8567366,34.2884551 L48.8393407,18.2039173 L46.4465634,10.5312822 L58.4979372,10.1025945 L64.8320168,9.87950192 C67.5616202,9.7832659 69.69631,7.49109897 69.5956996,4.76586997 C69.4994636,2.03626661 67.3254045,-0.0546795546 64.4820677,0.00218718218 L33.1441214,1.1176501 L40.5542946,24.8616999 L15.6991563,25.727824 L20.7253009,41.7861156 L23.1224526,49.4543763 L11.0929506,49.8655666 Z" id="Fill-1" fill="#255850" mask="url(#mask-6)"></path>
                </g>
                <g id="Group-12" transform="translate(64.000000, 0.000000)">
                    <path d="M12.4304783,19.4062202 C13.1106448,20.091999 14.4709777,20.7777778 15.8400308,20.7777778 C17.2003637,20.7777778 18.5606967,20.091999 19.2408631,19.4062202 C21.2900827,17.348884 21.2900827,13.9111981 19.2408631,11.8538618 L9.02092587,1.54959625 C6.98042644,-0.516532083 3.57087399,-0.516532083 1.53037457,1.54959625 C-0.510124856,3.60693254 -0.510124856,7.0446184 1.53037457,9.1019547 L12.4304783,19.4062202 Z" id="Fill-1" fill="#255850"></path>
                    <g id="Group-5" transform="translate(33.000000, 33.000000)">
                        <mask id="mask-8" fill="white">
                            <use xlink:href="#path-7"></use>
                        </mask>
                        <g id="Clip-4"></g>
                        <path d="M9.61539683,2.2052381 C7.57253968,0.162380952 4.15904762,0.162380952 2.11619048,2.2052381 C0.0646031746,4.24809524 0.0646031746,7.6615873 2.11619048,9.70444444 L12.3392063,19.9361905 C13.0288889,20.6171429 14.3907937,21.3068254 15.7526984,21.3068254 C17.1146032,21.3068254 18.4852381,20.6171429 19.1661905,19.9361905 C21.2090476,17.8933333 21.2090476,14.4798413 19.1661905,12.4369841 L9.61539683,2.2052381 Z" id="Fill-3" fill="#255850" mask="url(#mask-8)"></path>
                    </g>
                    <g id="Group-8" transform="translate(0.000000, 33.000000)">
                        <mask id="mask-10" fill="white">
                            <use xlink:href="#path-9"></use>
                        </mask>
                        <g id="Clip-7"></g>
                        <path d="M5.6265873,21.3024603 C6.98849206,21.3024603 8.35039683,20.6215079 9.04007937,19.9405556 L19.2630952,9.70880952 C21.3146825,7.66595238 21.3146825,4.25246032 19.2630952,2.20087302 C17.2202381,0.158015873 13.806746,0.158015873 11.7638889,2.20087302 L1.53214286,12.432619 C-0.510714286,14.4842063 -0.510714286,17.8889683 1.53214286,19.9405556 C2.90277778,20.6215079 4.26468254,21.3024603 5.6265873,21.3024603" id="Fill-6" fill="#255850" mask="url(#mask-10)"></path>
                    </g>
                    <g id="Group-11" transform="translate(33.000000, 0.000000)">
                        <mask id="mask-12" fill="white">
                            <use xlink:href="#path-11"></use>
                        </mask>
                        <g id="Clip-10"></g>
                        <path d="M19.8462698,1.80190476 C17.8034127,-0.240952381 14.3899206,-0.240952381 12.3470635,1.80190476 L2.11531746,12.0336508 C0.0637301587,14.0765079 0.0637301587,17.49 2.11531746,19.5328571 C2.79626984,20.2138095 4.1581746,20.9034921 5.52007937,20.9034921 C6.89071429,20.9034921 8.25261905,20.2138095 8.93357143,19.5328571 L19.1653175,9.30111111 C21.889127,7.25825397 21.889127,3.8447619 19.8462698,1.80190476" id="Fill-9" fill="#255850" mask="url(#mask-12)"></path>
                    </g>
                </g>
                <polygon id="Triangle" fill="#255850" fill-rule="nonzero" transform="translate(146.000000, 88.500000) rotate(-134.000000) translate(-146.000000, -88.500000) " points="146 63 176 114 116 114"></polygon>
            </g>
        </g>
    </g>
</svg>