<?xml version="1.0" encoding="UTF-8"?>
<svg width="174px" height="60px" viewBox="0 0 174 60" version="1.1" xmlns="http://www.w3.org/2000/svg" xmlns:xlink="http://www.w3.org/1999/xlink">
    <!-- Generator: Sketch 51.3 (57544) - http://www.bohemiancoding.com/sketch -->
    <title>logo_V2</title>
    <desc>Created with Sketch.</desc>
    <defs>
        <polygon id="path-1" points="0 60 174 60 174 0 0 0"></polygon>
    </defs>
    <g id="Page-1" stroke="none" stroke-width="1" fill="none" fill-rule="evenodd">
        <g id="3_IAI_interface_XL" transform="translate(-41.000000, -9.000000)">
            <g id="logo_V2" transform="translate(41.000000, 9.000000)">
                <path d="M167.062766,32.8616655 C165.421877,32.8616655 164.086499,31.5196146 164.086499,29.8695114 C164.086499,28.2194081 165.421877,26.8765313 167.062766,26.8765313 C168.703656,26.8765313 170.039034,28.2194081 170.039034,29.8695114 C170.039034,31.5196146 168.703656,32.8616655 167.062766,32.8616655 Z M144.005725,43.0083964 C144.005725,44.6774948 142.655563,46.0352374 140.995785,46.0352374 L112.971727,46.0352374 C111.311948,46.0352374 109.960966,44.6774948 109.960966,43.0083964 L109.960966,16.7372333 C109.960966,15.0689608 111.311948,13.7112182 112.971727,13.7112182 L140.995785,13.7112182 C142.655563,13.7112182 144.005725,15.0689608 144.005725,16.7372333 L144.005725,43.0083964 Z M161.204676,53.0246387 C161.204676,54.6747419 159.869298,56.0167928 158.228409,56.0167928 C156.587519,56.0167928 155.252141,54.6747419 155.252141,53.0246387 C155.252141,51.3745354 156.587519,50.0316586 158.228409,50.0316586 C159.869298,50.0316586 161.204676,51.3745354 161.204676,53.0246387 Z M155.252141,6.9761872 C155.252141,5.32608396 156.587519,3.98320716 158.228409,3.98320716 C159.869298,3.98320716 161.204676,5.32608396 161.204676,6.9761872 C161.204676,8.62629043 159.869298,9.96834136 158.228409,9.96834136 C156.587519,9.96834136 155.252141,8.62629043 155.252141,6.9761872 Z M167.062766,22.8933242 C163.925531,22.8933242 161.27202,24.9984859 160.417082,27.8774948 L147.967512,27.8774948 L147.967512,22.7578802 L158.228409,22.7578802 C159.322335,22.7578802 160.209302,21.8659326 160.209302,20.7658637 L160.209302,13.6591879 C163.071414,12.7994494 165.165642,10.1302134 165.165642,6.9761872 C165.165642,3.12924983 162.053865,0 158.228409,0 C154.402952,0 151.291175,3.12924983 151.291175,6.9761872 C151.291175,10.1302134 153.385403,12.7994494 156.248336,13.6591879 L156.248336,18.7738472 L147.967512,18.7738472 L147.967512,16.7372333 C147.967512,12.8721266 144.840131,9.72718513 140.995785,9.72718513 L112.971727,9.72718513 C109.127381,9.72718513 106,12.8721266 106,16.7372333 L106,43.0083964 C106,46.874329 109.127381,50.0184446 112.971727,50.0184446 L140.995785,50.0184446 C144.840131,50.0184446 147.967512,46.874329 147.967512,43.0083964 L147.967512,41.2261528 L156.248336,41.2261528 L156.248336,46.341638 C153.385403,47.2013765 151.291175,49.8706125 151.291175,53.0246387 C151.291175,56.8707502 154.402952,60 158.228409,60 C162.053865,60 165.165642,56.8707502 165.165642,53.0246387 C165.165642,49.8706125 163.071414,47.2013765 160.209302,46.341638 L160.209302,39.2349621 C160.209302,38.1348933 159.322335,37.2429456 158.228409,37.2429456 L147.967512,37.2429456 L147.967512,31.860702 L160.417082,31.860702 C161.27202,34.7388851 163.925531,36.8448727 167.062766,36.8448727 C170.888223,36.8448727 174,33.7156228 174,29.8695114 C174,26.022574 170.888223,22.8933242 167.062766,22.8933242 Z" id="Fill-1" fill="#5937B9"></path>
                <path d="M0,33.6662188 L0,25.4168234 C0,24.1115292 0.254724733,23.2158022 0.764174199,22.7296426 C1.27362366,22.2434829 2.21446179,22 3.58833196,22 L10,22 L10,25.2289707 L4.52177486,25.2289707 L4.2251438,25.2289707 L4.0558751,25.2289707 C3.63023829,25.2708949 3.37551356,25.4934157 3.29087921,25.895727 L3.29087921,26.2706262 L3.29087921,32.4584789 C3.29087921,32.9583445 3.35743632,33.3018006 3.49219392,33.4888471 C3.62695152,33.677506 3.88578472,33.7710293 4.26787182,33.7710293 L4.54396056,33.7710293 L10,33.7710293 L10,37 L3.09942482,37 C2.73130649,37 2.34921939,36.9234077 1.95316352,36.7710293 C0.650780608,36.2703574 0,35.2359581 0,33.6662188" id="Fill-3" fill="#5937B9"></path>
                <mask id="mask-2" fill="white">
                    <use xlink:href="#path-1"></use>
                </mask>
                <g id="Clip-6"></g>
                <path d="M0.4165,33.64 L0.4165,25.324 C0.4165,24.0079934 0.66849748,23.1050025 1.1725,22.615 C1.67650252,22.1249976 2.60749321,21.88 3.9655,21.88 L10.3075,21.88 L10.3075,25.135 L4.4275,25.135 C4.0074979,25.1770002 3.75550042,25.400998 3.6715,25.807 L3.6715,32.422 C3.6715,32.9260025 3.73799934,33.2724991 3.871,33.4615 C4.00400067,33.6505009 4.25949811,33.745 4.6375,33.745 L10.3075,33.745 L10.3075,37 L3.4825,37 C3.11849818,37 2.74050196,36.9230008 2.3485,36.769 C1.06049356,36.2649975 0.4165,35.2220079 0.4165,33.64 Z M11.9665,37 L11.9665,21.418 L14.8435,21.418 L14.8435,37 L11.9665,37 Z M16.8175,34.438 L16.8175,32.128 C16.8175,31.2879958 17.0624976,30.6300024 17.5525,30.154 C18.0425025,29.6779976 18.7214957,29.44 19.5895,29.44 L23.4325,29.44 L23.4115,28.831 C23.4115,28.5929988 23.208502,28.4460003 22.8025,28.39 L16.8595,28.39 L16.8595,25.66 L23.3905,25.66 L23.8945,25.702 C24.6225036,25.7860004 25.1684982,25.9889984 25.5325,26.311 C25.8965018,26.6330016 26.1344994,27.1369966 26.2465,27.823 C26.2745001,27.9350006 26.2885,28.1029989 26.2885,28.327 L26.2885,34.333 C26.2885,34.5710012 26.2745001,34.7459994 26.2465,34.858 C26.1204994,35.5020032 25.8265023,36.019998 25.3645,36.412 C24.9024977,36.804002 24.3425033,37 23.6845,37 L19.7365,37 C18.0844917,37 17.1255013,36.3140069 16.8595,34.942 C16.8735001,34.8299994 16.8735001,34.7250005 16.8595,34.627 C16.8595,34.5849998 16.8455001,34.5220004 16.8175,34.438 Z M19.8415,33.934 C19.9255004,34.0600006 20.072499,34.1439998 20.2825,34.186 L20.4295,34.207 L22.6765,34.207 C22.9285013,34.207 23.1139994,34.1370007 23.233,33.997 C23.3520006,33.8569993 23.4115,33.7100008 23.4115,33.556 L23.4115,32.758 C23.4115,32.561999 23.3975001,32.4430002 23.3695,32.401 C23.3414999,32.3449997 23.2365009,32.2750004 23.0545,32.191 C22.9844997,32.1349997 22.851501,32.107 22.6555,32.107 L20.2615,32.107 L20.1355,32.128 C19.8834987,32.1700002 19.7365002,32.3519984 19.6945,32.674 L19.6945,33.556 C19.6945,33.6960007 19.7434995,33.8219994 19.8415,33.934 Z M28.1155,37 L28.1155,34.123 L33.2395,34.123 C33.5615016,34.0669997 33.7504997,33.9200012 33.8065,33.682 L33.8275,33.556 L33.8275,33.325 L33.7645,33.073 C33.6664995,32.9049992 33.5265009,32.8000002 33.3445,32.758 L30.8665,32.758 C30.4044977,32.758 29.9915018,32.6530011 29.6275,32.443 C28.6614952,31.9109973 28.1785,31.2110043 28.1785,30.343 L28.1785,28.222 C28.1785,27.9699987 28.2064997,27.7530009 28.2625,27.571 C28.5705015,26.2969936 29.4734925,25.66 30.9715,25.66 L36.7675,25.66 L36.7885,28.537 L31.6015,28.537 L31.3285,28.621 L31.2655,28.684 C31.0974992,28.8380008 31.0135,28.9639995 31.0135,29.062 L31.0135,29.335 C31.0275001,29.3770002 31.0345,29.4119999 31.0345,29.44 C31.0485001,29.5100004 31.0939996,29.5904995 31.171,29.6815 C31.2480004,29.7725005 31.4264986,29.8389998 31.7065,29.881 L34.2685,29.881 C34.9825036,29.881 35.5774976,30.1679971 36.0535,30.742 C36.5295024,31.3160029 36.7675,31.8689973 36.7675,32.401 L36.7255,34.48 C36.7255,34.9420023 36.5750015,35.3934978 36.274,35.8345 C35.9729985,36.2755022 35.6615016,36.5799992 35.3395,36.748 C35.0174984,36.9160008 34.5835027,37 34.0375,37 L28.1155,37 Z M38.4685,37 L38.4685,34.123 L43.5925,34.123 C43.9145016,34.0669997 44.1034997,33.9200012 44.1595,33.682 L44.1805,33.556 L44.1805,33.325 L44.1175,33.073 C44.0194995,32.9049992 43.8795009,32.8000002 43.6975,32.758 L41.2195,32.758 C40.7574977,32.758 40.3445018,32.6530011 39.9805,32.443 C39.0144952,31.9109973 38.5315,31.2110043 38.5315,30.343 L38.5315,28.222 C38.5315,27.9699987 38.5594997,27.7530009 38.6155,27.571 C38.9235015,26.2969936 39.8264925,25.66 41.3245,25.66 L47.1205,25.66 L47.1415,28.537 L41.9545,28.537 L41.6815,28.621 L41.6185,28.684 C41.4504992,28.8380008 41.3665,28.9639995 41.3665,29.062 L41.3665,29.335 C41.3805001,29.3770002 41.3875,29.4119999 41.3875,29.44 C41.4015001,29.5100004 41.4469996,29.5904995 41.524,29.6815 C41.6010004,29.7725005 41.7794986,29.8389998 42.0595,29.881 L44.6215,29.881 C45.3355036,29.881 45.9304976,30.1679971 46.4065,30.742 C46.8825024,31.3160029 47.1205,31.8689973 47.1205,32.401 L47.0785,34.48 C47.0785,34.9420023 46.9280015,35.3934978 46.627,35.8345 C46.3259985,36.2755022 46.0145016,36.5799992 45.6925,36.748 C45.3704984,36.9160008 44.9365027,37 44.3905,37 L38.4685,37 Z M48.5065,27.613 L49.5565,25.387 C48.8704966,25.0369983 48.5275,24.4770039 48.5275,23.707 C48.5275,23.1749973 48.7129981,22.7375017 49.084,22.3945 C49.4550019,22.0514983 49.8714977,21.88 50.3335,21.88 C50.8235025,21.88 51.2504982,22.0619982 51.6145,22.426 C51.9785018,22.7900018 52.1605,23.2449973 52.1605,23.791 C52.1605,24.0010011 52.1465001,24.1549995 52.1185,24.253 L51.9295,24.757 L50.5645,27.613 L48.5065,27.613 Z M53.6725,33.64 L53.6725,25.324 C53.6725,24.0079934 53.9244975,23.1050025 54.4285,22.615 C54.9325025,22.1249976 55.8634932,21.88 57.2215,21.88 L63.5635,21.88 L63.5635,25.135 L57.6835,25.135 C57.2634979,25.1770002 57.0115004,25.400998 56.9275,25.807 L56.9275,32.422 C56.9275,32.9260025 56.9939993,33.2724991 57.127,33.4615 C57.2600007,33.6505009 57.5154981,33.745 57.8935,33.745 L63.5635,33.745 L63.5635,37 L56.7385,37 C56.3744982,37 55.996502,36.9230008 55.6045,36.769 C54.3164936,36.2649975 53.6725,35.2220079 53.6725,33.64 Z M65.2225,34.459 L65.2225,28.201 L65.2855,27.697 C65.5515013,26.3389932 66.482492,25.66 68.0785,25.66 L71.9425,25.66 C73.5245079,25.66 74.4624985,26.3389932 74.7565,27.697 C74.7845001,27.8090006 74.7985,27.9769989 74.7985,28.201 L74.7985,34.459 C74.7985,34.6830011 74.7845001,34.8509994 74.7565,34.963 C74.4624985,36.3210068 73.5245079,37 71.9425,37 L68.0785,37 C66.482492,37 65.5515013,36.3210068 65.2855,34.963 L65.2225,34.459 Z M68.3515,33.934 C68.5055008,34.0600006 68.6384994,34.123 68.7505,34.123 L71.2915,34.123 C71.4735009,34.123 71.6414992,34.0110011 71.7955,33.787 C71.8935005,33.6329992 71.9425,33.4790008 71.9425,33.325 L71.9425,29.314 C71.9425,29.0899989 71.8655008,28.9045007 71.7115,28.7575 C71.5574992,28.6104993 71.4175006,28.537 71.2915,28.537 L68.7505,28.537 C68.6104993,28.537 68.4670007,28.6104993 68.32,28.7575 C68.1729993,28.9045007 68.0995,29.0899989 68.0995,29.314 L68.0995,33.346 C68.0995,33.5700011 68.1834992,33.7659992 68.3515,33.934 Z M76.7305,34.144 L76.7305,28.474 L76.7515,28.012 C76.8355004,27.409997 77.0524983,26.906002 77.4025,26.5 C77.7525017,26.093998 78.2004973,25.8350006 78.7465,25.723 L79.3135,25.66 L83.4085,25.66 L83.4085,21.418 L86.2855,21.418 L86.2855,33.955 C86.2855,34.5010027 86.2365005,34.9314984 86.1385,35.2465 C86.0404995,35.5615016 85.8655013,35.8519987 85.6135,36.118 C85.0814973,36.7060029 84.3535046,37 83.4295,37 L79.3555,37 C78.8234973,37 78.3860017,36.898501 78.043,36.6955 C77.6999983,36.492499 77.3815015,36.1460025 77.0875,35.656 C76.8494988,35.2219978 76.7305,34.7180029 76.7305,34.144 Z M83.4295,33.661 L83.4295,29.209 C83.3874998,28.9849989 83.3035006,28.8310004 83.1775,28.747 C82.9954991,28.6069993 82.8275008,28.537 82.6735,28.537 L80.4685,28.537 C80.2304988,28.537 80.0485006,28.5859995 79.9225,28.684 C79.7964994,28.7820005 79.7055003,28.9569987 79.6495,29.209 L79.6285,29.335 L79.6285,33.451 L79.6705,33.661 C79.7405004,33.8850011 79.9084987,34.0319997 80.1745,34.102 L80.3425,34.123 L82.6945,34.123 L82.8625,34.102 C83.2405019,34.0459997 83.4295,33.8990012 83.4295,33.661 Z M88.3015,28.306 L88.3645,27.739 C88.6865016,26.3529931 89.6034924,25.66 91.1155,25.66 L95.0215,25.66 L95.5255,25.702 C96.8135064,25.9120011 97.5414992,26.6539936 97.7095,27.928 L97.7305,28.411 L97.7305,30.679 L91.2205,33.136 L91.2205,33.325 C91.2205,33.5630012 91.2729995,33.7554993 91.378,33.9025 C91.4830005,34.0495007 91.6194992,34.123 91.7875,34.123 L97.7095,34.123 L97.7095,37 L91.3885,37 C90.9124976,37 90.5660011,36.9790002 90.349,36.937 C90.1319989,36.8949998 89.9115011,36.8110006 89.6875,36.685 C89.1834975,36.4049986 88.826501,36.065502 88.6165,35.6665 C88.406499,35.267498 88.3015,34.7320034 88.3015,34.06 L88.3015,28.306 Z M94.8115,29.251 L94.8115,29.146 C94.7554997,28.9079988 94.5735015,28.7610003 94.2655,28.705 L94.1185,28.684 L92.1025,28.684 L91.7875,28.747 C91.5214987,28.8170004 91.3395005,28.9429991 91.2415,29.125 L91.1785,29.419 L91.1785,30.574 L94.8115,29.251 Z" id="Class’Code" fill="#5937B9"></path>
                <path d="M116.1115,37 L116.1115,21.88 L119.3665,21.88 L119.3665,37 L116.1115,37 Z M120.2695,37 L124.4485,23.749 C124.868502,22.4049933 125.722494,21.733 127.0105,21.733 C128.298506,21.733 129.145498,22.4049933 129.5515,23.749 L133.7305,37 L130.3285,37 L129.2995,33.745 L124.7005,33.745 L123.6715,37 L120.2695,37 Z M128.3335,30.658 L126.8005,25.765 L125.6665,30.658 L128.3335,30.658 Z M134.6335,37 L134.6335,21.88 L137.8885,21.88 L137.8885,37 L134.6335,37 Z" id="IAI" fill="#5937B9"></path>
            </g>
        </g>
    </g>
</svg>