<?xml version="1.0" encoding="UTF-8"?>
<svg width="26px" height="40px" viewBox="0 0 26 40" version="1.1" xmlns="http://www.w3.org/2000/svg" xmlns:xlink="http://www.w3.org/1999/xlink">
    <!-- Generator: Sketch 51.3 (57544) - http://www.bohemiancoding.com/sketch -->
    <title>Combined Shape</title>
    <desc>Created with Sketch.</desc>
    <defs></defs>
    <g id="Page-1" stroke="none" stroke-width="1" fill="none" fill-rule="evenodd">
        <g id="1_IAI_accueil_XL" transform="translate(-682.000000, -41.000000)" fill="#FF7558">
            <g id="Group-3" transform="translate(575.000000, 19.000000)">
                <path d="M111.925,22.434 C111.615,22.153 111.214,22 110.796,22 L107,22 L107,61.924 L110.796,61.924 C111.364667,61.812 111.753667,61.6553333 111.963,61.454 L131.603,42.629 C131.94,42.305 132.129,41.853 132.123,41.385 C132.116,40.913 131.914,40.467 131.565,40.155 L111.925,22.434 Z" id="Combined-Shape"></path>
            </g>
        </g>
    </g>
</svg>