<?xml version="1.0" encoding="UTF-8"?>
<svg width="23px" height="40px" viewBox="0 0 23 40" version="1.1" xmlns="http://www.w3.org/2000/svg" xmlns:xlink="http://www.w3.org/1999/xlink">
    <!-- Generator: Sketch 51.3 (57544) - http://www.bohemiancoding.com/sketch -->
    <title>Combined Shape</title>
    <desc>Created with Sketch.</desc>
    <defs></defs>
    <g id="Page-1" stroke="none" stroke-width="1" fill="none" fill-rule="evenodd">
        <g id="1_IAI_accueil_XL" transform="translate(-577.000000, -19.000000)" fill="#FF7558">
            <g id="Group-3" transform="translate(577.000000, 19.000000)">
                <path d="M22,0 L1.6856,0 C0.9916,0 0.3696,0.423 0.1166,1.071 C-0.1354,1.717 0.0306,2.449 0.5386,2.924 L18.8536,19.963 L0.5386,37.003 C0.0306,37.474 -0.1354,38.208 0.1166,38.853 C0.3696,39.499 0.9936,39.924 1.6856,39.924 L22,39.924 C22.2893333,39.924 22.2893333,26.616 22,0 Z" id="Combined-Shape"></path>
            </g>
        </g>
    </g>
</svg>