<?xml version="1.0" encoding="UTF-8"?>
<svg width="42px" height="40px" viewBox="0 0 42 40" version="1.1" xmlns="http://www.w3.org/2000/svg" xmlns:xlink="http://www.w3.org/1999/xlink">
    <!-- Generator: Sketch 51.3 (57544) - http://www.bohemiancoding.com/sketch -->
    <title>Fill 16</title>
    <desc>Created with Sketch.</desc>
    <defs></defs>
    <g id="Page-1" stroke="none" stroke-width="1" fill="none" fill-rule="evenodd">
        <g id="3_IAI_interface_XL" transform="translate(-672.000000, -257.000000)" fill="#00A387">
            <g id="programme" transform="translate(520.000000, 239.000000)">
                <path d="M189.715257,39.6451597 C188.701826,39.6451597 187.877126,38.7609853 187.877126,37.6757335 C187.877126,36.5893489 188.701826,35.7063073 189.715257,35.7063073 C190.728687,35.7063073 191.553388,36.5893489 191.553388,37.6757335 C191.553388,38.7609853 190.728687,39.6451597 189.715257,39.6451597 Z M175.474367,46.3220638 C175.474367,47.4209095 174.64015,48.3141465 173.615089,48.3141465 L156.305889,48.3141465 C155.280829,48.3141465 154.446612,47.4209095 154.446612,46.3220638 L154.446612,29.0339346 C154.446612,27.9356552 155.280829,27.0424182 156.305889,27.0424182 L173.615089,27.0424182 C174.64015,27.0424182 175.474367,27.9356552 175.474367,29.0339346 L175.474367,46.3220638 Z M186.096618,52.9134391 C186.096618,53.9992574 185.272446,54.8822989 184.258487,54.8822989 C183.245056,54.8822989 182.420356,53.9992574 182.420356,52.9134391 C182.420356,51.8276209 183.245056,50.944013 184.258487,50.944013 C185.272446,50.944013 186.096618,51.8276209 186.096618,52.9134391 Z M182.420356,22.6107845 C182.420356,21.5243999 183.245056,20.640792 184.258487,20.640792 C185.272446,20.640792 186.096618,21.5243999 186.096618,22.6107845 C186.096618,23.6960364 185.272446,24.5796443 184.258487,24.5796443 C183.245056,24.5796443 182.420356,23.6960364 182.420356,22.6107845 Z M189.715257,33.0849371 C187.777739,33.0849371 186.138382,34.4703891 185.610785,36.3650484 L177.92045,36.3650484 L177.92045,32.9960099 L184.258487,32.9960099 C184.934636,32.9960099 185.481793,32.4092036 185.481793,31.6847584 L185.481793,27.0078669 C187.250142,26.4420179 188.54323,24.6861304 188.54323,22.6107845 C188.54323,20.078908 186.621043,18.0194218 184.258487,18.0194218 C181.895931,18.0194218 179.973744,20.078908 179.973744,22.6107845 C179.973744,24.6861304 181.267361,26.4420179 183.035181,27.0078669 L183.035181,30.3740733 L177.92045,30.3740733 L177.92045,29.0339346 C177.92045,26.4901633 175.989276,24.421048 173.615089,24.421048 L156.305889,24.421048 C153.931703,24.421048 152,26.4901633 152,29.0339346 L152,46.3220638 C152,48.8658351 153.931703,50.9355168 156.305889,50.9355168 L173.615089,50.9355168 C175.989276,50.9355168 177.92045,48.8658351 177.92045,46.3220638 L177.92045,45.149584 L183.035181,45.149584 L183.035181,48.5157904 C181.267361,49.0810729 179.973744,50.8375269 179.973744,52.9134391 C179.973744,55.4447493 181.895931,57.5036691 184.258487,57.5036691 C186.621043,57.5036691 188.54323,55.4447493 188.54323,52.9134391 C188.54323,50.8375269 187.250142,49.0810729 185.481793,48.5157904 L185.481793,43.8383325 C185.481793,43.1150201 184.934636,42.5282138 184.258487,42.5282138 L177.92045,42.5282138 L177.92045,38.9864186 L185.610256,38.9864186 C186.138382,40.8805115 187.777739,42.2665299 189.715257,42.2665299 C192.077813,42.2665299 194,40.2070437 194,37.6757335 C194,35.1444233 192.077813,33.0849371 189.715257,33.0849371 Z" id="Fill-16"></path>
            </g>
        </g>
    </g>
</svg>