<?xml version="1.0" encoding="UTF-8"?>
<svg width="29px" height="29px" viewBox="0 0 29 29" version="1.1" xmlns="http://www.w3.org/2000/svg" xmlns:xlink="http://www.w3.org/1999/xlink">
    <!-- Generator: Sketch 51.3 (57544) - http://www.bohemiancoding.com/sketch -->
    <title>Group 3</title>
    <desc>Created with Sketch.</desc>
    <defs>
        <polygon id="path-1" points="5.03225806 9.22580645 20.516129 9.22580645 20.516129 19.2903226 5.03225806 19.2903226"></polygon>
    </defs>
    <g id="Page-1" stroke="none" stroke-width="1" fill="none" fill-rule="evenodd">
        <g id="specs_integration" transform="translate(-176.000000, -910.000000)">
            <g id="Group-3" transform="translate(191.000000, 924.000000) scale(-1, 1) rotate(90.000000) translate(-191.000000, -924.000000) translate(178.000000, 911.000000)">
                <circle id="Oval" stroke="#00977D" stroke-width="3" fill-opacity="0.2" fill="#FFFFFF" fill-rule="nonzero" cx="13.1935484" cy="12.8064516" r="12.5806452"></circle>
                <mask id="mask-2" fill="white">
                    <use xlink:href="#path-1"></use>
                </mask>
                <g id="Clip-2"></g>
                <path d="M5.50479925,9.75505741 C6.14028566,9.07271733 7.18313517,9.07271733 7.81862159,9.75505741 L12.7721567,15.0563149 L17.7256919,9.73756151 C18.3611783,9.05522143 19.4040278,9.05522143 20.0395142,9.73756151 C20.6750006,10.4199016 20.6750006,11.5396391 20.0395142,12.2219792 L13.9290679,18.7829415 C13.619472,19.1153636 13.2121089,19.2903226 12.7721567,19.2903226 C12.3322046,19.2903226 11.9248415,19.0978677 11.6152456,18.7829415 L5.50479925,12.2394751 C5.1952033,11.8895571 5.03225806,11.4346638 5.03225806,10.9972663 C5.03225806,10.5423729 5.1952033,10.1049754 5.50479925,9.75505741 Z" id="Fill-1" fill="#00977D" mask="url(#mask-2)"></path>
            </g>
        </g>
    </g>
</svg>